<svg width="25" height="24" viewBox="0 0 25 24" fill="none" xmlns="http://www.w3.org/2000/svg">
<g clip-path="url(#clip0)">
<path d="M12.5816 15.994C12.1846 15.994 11.7876 15.9 11.4246 15.711L0.850553 10.193C0.605553 10.065 0.511553 9.76303 0.638553 9.51803C0.765553 9.27303 1.06755 9.17903 1.31355 9.30603L11.8886 14.823C12.3236 15.05 12.8416 15.05 13.2766 14.823L23.8516 9.30603C24.0986 9.17903 24.3986 9.27303 24.5266 9.51803C24.6536 9.76303 24.5596 10.065 24.3146 10.193L13.7386 15.71C13.3756 15.899 12.9786 15.994 12.5816 15.994Z" fill="#333232"/>
<path d="M22.582 23.0004H2.58203C1.47903 23.0004 0.582031 22.1034 0.582031 21.0004V8.40939C0.582031 7.66139 0.994031 6.98239 1.65703 6.63639L11.657 1.41839C12.237 1.11639 12.928 1.11639 13.507 1.41839L23.507 6.63639C24.17 6.98239 24.582 7.66139 24.582 8.40939V21.0004C24.582 22.1034 23.685 23.0004 22.582 23.0004ZM12.582 2.19239C12.423 2.19239 12.264 2.23039 12.119 2.30539L2.11903 7.52339C1.78803 7.69639 1.58203 8.03539 1.58203 8.40939V21.0004C1.58203 21.5514 2.03103 22.0004 2.58203 22.0004H22.582C23.133 22.0004 23.582 21.5514 23.582 21.0004V8.40939C23.582 8.03539 23.376 7.69639 23.045 7.52339L13.045 2.30539C12.9 2.22939 12.741 2.19239 12.582 2.19239Z" fill="#333232"/>
</g>
<defs>
<clipPath id="clip0">
<rect width="24" height="24" fill="white" transform="translate(0.582031)"/>
</clipPath>
</defs>
</svg>
