<svg width="24" height="20" viewBox="0 0 24 20" fill="none" xmlns="http://www.w3.org/2000/svg">
<path d="M23.5 19.9997C23.321 19.9997 23.152 19.9037 23.062 19.7417C20.761 15.5827 16.379 12.9997 11.627 12.9997H10V17.4997C10 17.6997 9.881 17.8797 9.698 17.9587C9.512 18.0397 9.301 18.0007 9.156 17.8627L0.156 9.36268C0.057 9.26868 0 9.13768 0 8.99968C0 8.86168 0.057 8.73068 0.156 8.63668L9.156 0.136683C9.302 -0.000316709 9.514 -0.0393169 9.698 0.0406831C9.881 0.119683 10 0.299683 10 0.499683V4.99968C17.726 5.03868 24 11.3347 24 19.0697V19.4997C24 19.7277 23.846 19.9267 23.625 19.9837C23.583 19.9947 23.541 19.9997 23.5 19.9997ZM9.5 11.9997H11.627C16.115 11.9997 20.297 14.1397 22.928 17.6877C22.235 11.1277 16.67 5.99968 9.93 5.99968H9.5C9.224 5.99968 9 5.77568 9 5.49968V1.65968L1.229 8.99968L9 16.3397V12.4997C9 12.2237 9.224 11.9997 9.5 11.9997Z" fill="#333232"/>
</svg>
